%!PS-Adobe-3.0
%%Title: CPTFINAL.py
%%For: 1006634
%%Creator: VIM - Vi IMproved 9.0 (2022 Jun 28)
%%CreationDate: Mon Apr 24 10:23:27 2023
%%DocumentData: Clean8Bit
%%Orientation: Portrait
%%Pages: (atend)
%%PageOrder: Ascend
%%BoundingBox: 59 49 516 800
%%DocumentMedia: A4 595 842 0 () ()
%%DocumentNeededResources: font Courier
%%+ font Courier-Bold
%%+ font Courier-Oblique
%%+ font Courier-BoldOblique
%%DocumentSuppliedResources: procset VIM-Prolog 1.4 1
%%+ encoding VIM-latin1 1.0 0
%%Requirements: duplex collate color
%%EndComments
%%BeginDefaults
%%PageResources: font Courier
%%+ font Courier-Bold
%%+ font Courier-Oblique
%%+ font Courier-BoldOblique
%%PageMedia: A4
%%EndDefaults
%%BeginProlog
%%BeginResource: procset VIM-Prolog
%%BeginDocument: /usr/share/vim/vim90/print/prolog.ps
%!PS-Adobe-3.0 Resource-ProcSet
%%Title: VIM-Prolog
%%Version: 1.4 1
%%EndComments
% Editing of this file is NOT RECOMMENDED.  You run a very good risk of causing
% all PostScript printing from VIM failing if you do.  PostScript is not called
% a write-only language for nothing!
/packedarray where not{userdict begin/setpacking/pop load def/currentpacking
false def end}{pop}ifelse/CP currentpacking def true setpacking
/bd{bind def}bind def/ld{load def}bd/ed{exch def}bd/d/def ld
/db{dict begin}bd/cde{currentdict end}bd
/T true d/F false d
/SO null d/sv{/SO save d}bd/re{SO restore}bd
/L2 systemdict/languagelevel 2 copy known{get exec}{pop pop 1}ifelse 2 ge d
/m/moveto ld/s/show ld /ms{m s}bd /g/setgray ld/r/setrgbcolor ld/sp{showpage}bd
/gs/gsave ld/gr/grestore ld/cp/currentpoint ld
/ul{gs UW setlinewidth cp UO add 2 copy newpath m 3 1 roll add exch lineto
stroke gr}bd
/bg{gs r cp BO add 4 -2 roll rectfill gr}bd
/sl{90 rotate 0 exch translate}bd
L2{
/sspd{mark exch{setpagedevice}stopped cleartomark}bd
/nc{1 db/NumCopies ed cde sspd}bd
/sps{3 db/Orientation ed[3 1 roll]/PageSize ed/ImagingBBox null d cde sspd}bd
/dt{2 db/Tumble ed/Duplex ed cde sspd}bd
/c{1 db/Collate ed cde sspd}bd
}{
/nc{/#copies ed}bd
/sps{statusdict/setpage get exec}bd
/dt{statusdict/settumble 2 copy known{get exec}{pop pop pop}ifelse
statusdict/setduplexmode 2 copy known{get exec}{pop pop pop}ifelse}bd
/c{pop}bd
}ifelse
/ffs{findfont exch scalefont d}bd/sf{setfont}bd
/ref{1 db findfont dup maxlength dict/NFD ed{exch dup/FID ne{exch NFD 3 1 roll
put}{pop pop}ifelse}forall/Encoding findresource dup length 256 eq{NFD/Encoding
3 -1 roll put}{pop}ifelse NFD dup/FontType get 3 ne{/CharStrings}{/CharProcs}
ifelse 2 copy known{2 copy get dup maxlength dict copy[/questiondown/space]{2
copy known{2 copy get 2 index/.notdef 3 -1 roll put pop exit}if pop}forall put
}{pop pop}ifelse dup NFD/FontName 3 -1 roll put NFD definefont pop end}bd
CP setpacking
(\004)cvn{}bd
% vim:ff=unix:
%%EOF
%%EndDocument
%%EndResource
%%BeginResource: encoding VIM-latin1
%%BeginDocument: /usr/share/vim/vim90/print/latin1.ps
%!PS-Adobe-3.0 Resource-Encoding
%%Title: VIM-latin1
%%Version: 1.0 0
%%EndComments
/VIM-latin1[
/.notdef /.notdef /.notdef /.notdef /.notdef /.notdef /.notdef /.notdef
/.notdef /.notdef /.notdef /.notdef /.notdef /.notdef /.notdef /.notdef
/.notdef /.notdef /.notdef /.notdef /.notdef /.notdef /.notdef /.notdef
/.notdef /.notdef /.notdef /.notdef /.notdef /.notdef /.notdef /.notdef
/space /exclam /quotedbl /numbersign /dollar /percent /ampersand /quotesingle
/parenleft /parenright /asterisk /plus /comma /minus /period /slash
/zero /one /two /three /four /five /six /seven
/eight /nine /colon /semicolon /less /equal /greater /question
/at /A /B /C /D /E /F /G
/H /I /J /K /L /M /N /O
/P /Q /R /S /T /U /V /W
/X /Y /Z /bracketleft /backslash /bracketright /asciicircum /underscore
/grave /a /b /c /d /e /f /g
/h /i /j /k /l /m /n /o
/p /q /r /s /t /u /v /w
/x /y /z /braceleft /bar /braceright /asciitilde /.notdef
/.notdef /.notdef /.notdef /.notdef /.notdef /.notdef /.notdef /.notdef
/.notdef /.notdef /.notdef /.notdef /.notdef /.notdef /.notdef /.notdef
/.notdef /.notdef /.notdef /.notdef /.notdef /.notdef /.notdef /.notdef
/.notdef /.notdef /.notdef /.notdef /.notdef /.notdef /.notdef /.notdef
/space /exclamdown /cent /sterling /currency /yen /brokenbar /section
/dieresis /copyright /ordfeminine /guillemotleft /logicalnot /hyphen /registered /macron
/degree /plusminus /twosuperior /threesuperior /acute /mu /paragraph /periodcentered
/cedilla /onesuperior /ordmasculine /guillemotright /onequarter /onehalf /threequarters /questiondown
/Agrave /Aacute /Acircumflex /Atilde /Adieresis /Aring /AE /Ccedilla
/Egrave /Eacute /Ecircumflex /Edieresis /Igrave /Iacute /Icircumflex /Idieresis
/Eth /Ntilde /Ograve /Oacute /Ocircumflex /Otilde /Odieresis /multiply
/Oslash /Ugrave /Uacute /Ucircumflex /Udieresis /Yacute /Thorn /germandbls
/agrave /aacute /acircumflex /atilde /adieresis /aring /ae /ccedilla
/egrave /eacute /ecircumflex /edieresis /igrave /iacute /icircumflex /idieresis
/eth /ntilde /ograve /oacute /ocircumflex /otilde /odieresis /divide
/oslash /ugrave /uacute /ucircumflex /udieresis /yacute /thorn /ydieresis]
/Encoding defineresource pop
% vim:ff=unix:
%%EOF
%%EndDocument
%%EndResource
%%EndProlog
%%BeginSetup
595 842 0 sps
1 nc
T F dt
T c
%%IncludeResource: font Courier
/_F0 /VIM-latin1 /Courier ref
/F0 10 /_F0 ffs
%%IncludeResource: font Courier-Bold
/_F1 /VIM-latin1 /Courier-Bold ref
/F1 10 /_F1 ffs
%%IncludeResource: font Courier-Oblique
/_F2 /VIM-latin1 /Courier-Oblique ref
/F2 10 /_F2 ffs
%%IncludeResource: font Courier-BoldOblique
/_F3 /VIM-latin1 /Courier-BoldOblique ref
/F3 10 /_F3 ffs
/UO -1 d
/UW 0.5 d
/BO -2.5 d
%%EndSetup
%%Page: 1 1
%%BeginPageSetup
sv
0 g
F0 sf
%%EndPageSetup
F1 sf
(CPTFINAL.py[+]                                                                Page 1)59.5 792.4 ms
F0 sf
0 0.498 0.498 r
(     1)59.5 772.4 ms
0 0 0.376 r
(import)107.5 772.4 ms
0 g
( tkinter )s
0 0.498 0.498 r
(as)s
0 g
( tk)s
0 0.498 0.498 r
(     2)59.5 762.4 ms
(     3)59.5 752.4 ms
0 g
(turnNum = )107.5 752.4 ms
0.498 0.125 0.498 r
(0)s
0 0.498 0.498 r
(     4)59.5 742.4 ms
(     5)59.5 732.4 ms
(def)107.5 732.4 ms
0 g
( )s
F1 sf
0.498 0.498 0 r
(isGameOver)s
F0 sf
0 g
(\(\):)s
0 0.498 0.498 r
(     6)59.5 722.4 ms
0 g
(  )107.5 722.4 ms
0 0.498 0.498 r
(     7)59.5 712.4 ms
0 g
(  over = )107.5 712.4 ms
0.498 0.125 0.498 r
(0)s
0 0.498 0.498 r
(     8)59.5 702.4 ms
0 g
(  xWon = )107.5 702.4 ms
0.498 0.125 0.498 r
(0)s
0 0.498 0.498 r
(     9)59.5 692.4 ms
0 g
(  )107.5 692.4 ms
0 0.498 0.498 r
(    10)59.5 682.4 ms
0 g
(  )107.5 682.4 ms
0 0.498 0.498 r
(if)s
0 g
( Buttons[)s
0.498 0.125 0.498 r
(0)s
0 g
(].cget\()s
0.498 0.125 0.498 r
('text')s
0 g
(\) + Buttons[)s
0.498 0.125 0.498 r
(1)s
0 g
(].cget\()s
0.498 0.125 0.498 r
('text')s
0 g
(\) + Buttons[)s
0.498 0.125 0.498 r
(2)s
0 g
(].cget\()s
0.498 0.125 0.498 r
('te)s
(xt')107.5 672.4 ms
0 g
(\) == )s
0.498 0.125 0.498 r
("xxx")s
0 g
(:)s
0 0.498 0.498 r
(    11)59.5 662.4 ms
0 g
(    over += )107.5 662.4 ms
0.498 0.125 0.498 r
(1)s
0 0.498 0.498 r
(    12)59.5 652.4 ms
0 g
(    xWon += )107.5 652.4 ms
0.498 0.125 0.498 r
(1)s
0 0.498 0.498 r
(    13)59.5 642.4 ms
0 g
(  )107.5 642.4 ms
0 0.498 0.498 r
(if)s
0 g
( Buttons[)s
0.498 0.125 0.498 r
(0)s
0 g
(].cget\()s
0.498 0.125 0.498 r
('text')s
0 g
(\) + Buttons[)s
0.498 0.125 0.498 r
(1)s
0 g
(].cget\()s
0.498 0.125 0.498 r
('text')s
0 g
(\) + Buttons[)s
0.498 0.125 0.498 r
(2)s
0 g
(].cget\()s
0.498 0.125 0.498 r
('te)s
(xt')107.5 632.4 ms
0 g
(\) == )s
0.498 0.125 0.498 r
("ooo")s
0 g
(:)s
0 0.498 0.498 r
(    14)59.5 622.4 ms
0 g
(    over += )107.5 622.4 ms
0.498 0.125 0.498 r
(1)s
0 0.498 0.498 r
(    15)59.5 612.4 ms
0 g
(    xWon += )107.5 612.4 ms
0.498 0.125 0.498 r
(0)s
0 0.498 0.498 r
(    16)59.5 602.4 ms
0 g
(  )107.5 602.4 ms
0 0.498 0.498 r
(if)s
0 g
( Buttons[)s
0.498 0.125 0.498 r
(3)s
0 g
(].cget\()s
0.498 0.125 0.498 r
('text')s
0 g
(\) + Buttons[)s
0.498 0.125 0.498 r
(4)s
0 g
(].cget\()s
0.498 0.125 0.498 r
('text')s
0 g
(\) + Buttons[)s
0.498 0.125 0.498 r
(5)s
0 g
(].cget\()s
0.498 0.125 0.498 r
('te)s
(xt')107.5 592.4 ms
0 g
(\) == )s
0.498 0.125 0.498 r
("xxx")s
0 g
(:)s
0 0.498 0.498 r
(    17)59.5 582.4 ms
0 g
(    over += )107.5 582.4 ms
0.498 0.125 0.498 r
(1)s
0 0.498 0.498 r
(    18)59.5 572.4 ms
0 g
(    xWon += )107.5 572.4 ms
0.498 0.125 0.498 r
(1)s
0 0.498 0.498 r
(    19)59.5 562.4 ms
0 g
(  )107.5 562.4 ms
0 0.498 0.498 r
(if)s
0 g
( Buttons[)s
0.498 0.125 0.498 r
(3)s
0 g
(].cget\()s
0.498 0.125 0.498 r
('text')s
0 g
(\) + Buttons[)s
0.498 0.125 0.498 r
(4)s
0 g
(].cget\()s
0.498 0.125 0.498 r
('text')s
0 g
(\) + Buttons[)s
0.498 0.125 0.498 r
(5)s
0 g
(].cget\()s
0.498 0.125 0.498 r
('te)s
(xt')107.5 552.4 ms
0 g
(\) == )s
0.498 0.125 0.498 r
("ooo")s
0 g
(:)s
0 0.498 0.498 r
(    20)59.5 542.4 ms
0 g
(    over += )107.5 542.4 ms
0.498 0.125 0.498 r
(1)s
0 0.498 0.498 r
(    21)59.5 532.4 ms
0 g
(    xWon += )107.5 532.4 ms
0.498 0.125 0.498 r
(0)s
0 0.498 0.498 r
(    22)59.5 522.4 ms
0 g
(  )107.5 522.4 ms
0 0.498 0.498 r
(if)s
0 g
( Buttons[)s
0.498 0.125 0.498 r
(6)s
0 g
(].cget\()s
0.498 0.125 0.498 r
('text')s
0 g
(\) + Buttons[)s
0.498 0.125 0.498 r
(7)s
0 g
(].cget\()s
0.498 0.125 0.498 r
('text')s
0 g
(\) + Buttons[)s
0.498 0.125 0.498 r
(8)s
0 g
(].cget\()s
0.498 0.125 0.498 r
('te)s
(xt')107.5 512.4 ms
0 g
(\) == )s
0.498 0.125 0.498 r
("xxx")s
0 g
(:)s
0 0.498 0.498 r
(    23)59.5 502.4 ms
0 g
(    over += )107.5 502.4 ms
0.498 0.125 0.498 r
(1)s
0 0.498 0.498 r
(    24)59.5 492.4 ms
0 g
(    xWon += )107.5 492.4 ms
0.498 0.125 0.498 r
(1)s
0 0.498 0.498 r
(    25)59.5 482.4 ms
0 g
(  )107.5 482.4 ms
0 0.498 0.498 r
(if)s
0 g
( Buttons[)s
0.498 0.125 0.498 r
(6)s
0 g
(].cget\()s
0.498 0.125 0.498 r
('text')s
0 g
(\) + Buttons[)s
0.498 0.125 0.498 r
(7)s
0 g
(].cget\()s
0.498 0.125 0.498 r
('text')s
0 g
(\) + Buttons[)s
0.498 0.125 0.498 r
(8)s
0 g
(].cget\()s
0.498 0.125 0.498 r
('te)s
(xt')107.5 472.4 ms
0 g
(\) == )s
0.498 0.125 0.498 r
("ooo")s
0 g
(:)s
0 0.498 0.498 r
(    26)59.5 462.4 ms
0 g
(    over += )107.5 462.4 ms
0.498 0.125 0.498 r
(1)s
0 0.498 0.498 r
(    27)59.5 452.4 ms
0 g
(    xWon += )107.5 452.4 ms
0.498 0.125 0.498 r
(0)s
0 0.498 0.498 r
(    28)59.5 442.4 ms
(    29)59.5 432.4 ms
0 g
(  )107.5 432.4 ms
0 0.498 0.498 r
(if)s
0 g
( Buttons[)s
0.498 0.125 0.498 r
(0)s
0 g
(].cget\()s
0.498 0.125 0.498 r
('text')s
0 g
(\) + Buttons[)s
0.498 0.125 0.498 r
(3)s
0 g
(].cget\()s
0.498 0.125 0.498 r
('text')s
0 g
(\) + Buttons[)s
0.498 0.125 0.498 r
(6)s
0 g
(].cget\()s
0.498 0.125 0.498 r
('te)s
(xt')107.5 422.4 ms
0 g
(\) == )s
0.498 0.125 0.498 r
("xxx")s
0 g
(:)s
0 0.498 0.498 r
(    30)59.5 412.4 ms
0 g
(    over += )107.5 412.4 ms
0.498 0.125 0.498 r
(1)s
0 0.498 0.498 r
(    31)59.5 402.4 ms
0 g
(    xWon += )107.5 402.4 ms
0.498 0.125 0.498 r
(1)s
0 0.498 0.498 r
(    32)59.5 392.4 ms
0 g
(  )107.5 392.4 ms
0 0.498 0.498 r
(if)s
0 g
( Buttons[)s
0.498 0.125 0.498 r
(0)s
0 g
(].cget\()s
0.498 0.125 0.498 r
('text')s
0 g
(\) + Buttons[)s
0.498 0.125 0.498 r
(3)s
0 g
(].cget\()s
0.498 0.125 0.498 r
('text')s
0 g
(\) + Buttons[)s
0.498 0.125 0.498 r
(6)s
0 g
(].cget\()s
0.498 0.125 0.498 r
('te)s
(xt')107.5 382.4 ms
0 g
(\) == )s
0.498 0.125 0.498 r
("ooo")s
0 g
(:)s
0 0.498 0.498 r
(    33)59.5 372.4 ms
0 g
(    over += )107.5 372.4 ms
0.498 0.125 0.498 r
(1)s
0 0.498 0.498 r
(    34)59.5 362.4 ms
0 g
(    xWon += )107.5 362.4 ms
0.498 0.125 0.498 r
(0)s
0 0.498 0.498 r
(    35)59.5 352.4 ms
0 g
(  )107.5 352.4 ms
0 0.498 0.498 r
(if)s
0 g
( Buttons[)s
0.498 0.125 0.498 r
(1)s
0 g
(].cget\()s
0.498 0.125 0.498 r
('text')s
0 g
(\) + Buttons[)s
0.498 0.125 0.498 r
(4)s
0 g
(].cget\()s
0.498 0.125 0.498 r
('text')s
0 g
(\) + Buttons[)s
0.498 0.125 0.498 r
(7)s
0 g
(].cget\()s
0.498 0.125 0.498 r
('te)s
(xt')107.5 342.4 ms
0 g
(\) == )s
0.498 0.125 0.498 r
("xxx")s
0 g
(:)s
0 0.498 0.498 r
(    36)59.5 332.4 ms
0 g
(    over += )107.5 332.4 ms
0.498 0.125 0.498 r
(1)s
0 0.498 0.498 r
(    37)59.5 322.4 ms
0 g
(    xWon += )107.5 322.4 ms
0.498 0.125 0.498 r
(1)s
0 0.498 0.498 r
(    38)59.5 312.4 ms
0 g
(  )107.5 312.4 ms
0 0.498 0.498 r
(if)s
0 g
( Buttons[)s
0.498 0.125 0.498 r
(1)s
0 g
(].cget\()s
0.498 0.125 0.498 r
('text')s
0 g
(\) + Buttons[)s
0.498 0.125 0.498 r
(4)s
0 g
(].cget\()s
0.498 0.125 0.498 r
('text')s
0 g
(\) + Buttons[)s
0.498 0.125 0.498 r
(7)s
0 g
(].cget\()s
0.498 0.125 0.498 r
('te)s
(xt')107.5 302.4 ms
0 g
(\) == )s
0.498 0.125 0.498 r
("ooo")s
0 g
(:)s
0 0.498 0.498 r
(    39)59.5 292.4 ms
0 g
(    over += )107.5 292.4 ms
0.498 0.125 0.498 r
(1)s
0 0.498 0.498 r
(    40)59.5 282.4 ms
0 g
(    xWon += )107.5 282.4 ms
0.498 0.125 0.498 r
(0)s
0 0.498 0.498 r
(    41)59.5 272.4 ms
0 g
(  )107.5 272.4 ms
0 0.498 0.498 r
(if)s
0 g
( Buttons[)s
0.498 0.125 0.498 r
(2)s
0 g
(].cget\()s
0.498 0.125 0.498 r
('text')s
0 g
(\) + Buttons[)s
0.498 0.125 0.498 r
(5)s
0 g
(].cget\()s
0.498 0.125 0.498 r
('text')s
0 g
(\) + Buttons[)s
0.498 0.125 0.498 r
(8)s
0 g
(].cget\()s
0.498 0.125 0.498 r
('te)s
(xt')107.5 262.4 ms
0 g
(\) == )s
0.498 0.125 0.498 r
("xxx")s
0 g
(:)s
0 0.498 0.498 r
(    42)59.5 252.4 ms
0 g
(    over += )107.5 252.4 ms
0.498 0.125 0.498 r
(1)s
0 0.498 0.498 r
(    43)59.5 242.4 ms
0 g
(    xWon += )107.5 242.4 ms
0.498 0.125 0.498 r
(1)s
0 0.498 0.498 r
(    44)59.5 232.4 ms
0 g
(  )107.5 232.4 ms
0 0.498 0.498 r
(if)s
0 g
( Buttons[)s
0.498 0.125 0.498 r
(2)s
0 g
(].cget\()s
0.498 0.125 0.498 r
('text')s
0 g
(\) + Buttons[)s
0.498 0.125 0.498 r
(5)s
0 g
(].cget\()s
0.498 0.125 0.498 r
('text')s
0 g
(\) + Buttons[)s
0.498 0.125 0.498 r
(8)s
0 g
(].cget\()s
0.498 0.125 0.498 r
('te)s
(xt')107.5 222.4 ms
0 g
(\) == )s
0.498 0.125 0.498 r
("ooo")s
0 g
(:)s
0 0.498 0.498 r
(    45)59.5 212.4 ms
0 g
(    over += )107.5 212.4 ms
0.498 0.125 0.498 r
(1)s
0 0.498 0.498 r
(    46)59.5 202.4 ms
0 g
(    xWon += )107.5 202.4 ms
0.498 0.125 0.498 r
(0)s
0 0.498 0.498 r
(    47)59.5 192.4 ms
(    48)59.5 182.4 ms
0 g
(  )107.5 182.4 ms
0 0.498 0.498 r
(if)s
0 g
( Buttons[)s
0.498 0.125 0.498 r
(0)s
0 g
(].cget\()s
0.498 0.125 0.498 r
('text')s
0 g
(\) + Buttons[)s
0.498 0.125 0.498 r
(4)s
0 g
(].cget\()s
0.498 0.125 0.498 r
('text')s
0 g
(\) + Buttons[)s
0.498 0.125 0.498 r
(8)s
0 g
(].cget\()s
0.498 0.125 0.498 r
('te)s
(xt')107.5 172.4 ms
0 g
(\) == )s
0.498 0.125 0.498 r
("xxx")s
0 g
(:)s
0 0.498 0.498 r
(    49)59.5 162.4 ms
0 g
(    over += )107.5 162.4 ms
0.498 0.125 0.498 r
(1)s
0 0.498 0.498 r
(    50)59.5 152.4 ms
0 g
(    xWon += )107.5 152.4 ms
0.498 0.125 0.498 r
(1)s
0 0.498 0.498 r
(    51)59.5 142.4 ms
0 g
(  )107.5 142.4 ms
0 0.498 0.498 r
(if)s
0 g
( Buttons[)s
0.498 0.125 0.498 r
(2)s
0 g
(].cget\()s
0.498 0.125 0.498 r
('text')s
0 g
(\) + Buttons[)s
0.498 0.125 0.498 r
(4)s
0 g
(].cget\()s
0.498 0.125 0.498 r
('text')s
0 g
(\) + Buttons[)s
0.498 0.125 0.498 r
(7)s
0 g
(].cget\()s
0.498 0.125 0.498 r
('te)s
(xt')107.5 132.4 ms
0 g
(\) == )s
0.498 0.125 0.498 r
("ooo")s
0 g
(:)s
0 0.498 0.498 r
(    52)59.5 122.4 ms
0 g
(    over += )107.5 122.4 ms
0.498 0.125 0.498 r
(1)s
0 0.498 0.498 r
(    53)59.5 112.4 ms
0 g
(    xWon += )107.5 112.4 ms
0.498 0.125 0.498 r
(0)s
0 0.498 0.498 r
(    54)59.5 102.4 ms
(    55)59.5 92.4 ms
0 g
(  text = )107.5 92.4 ms
0.498 0.125 0.498 r
("")s
0 0.498 0.498 r
(    56)59.5 82.4 ms
0 g
(    )107.5 82.4 ms
0 0.498 0.498 r
(    57)59.5 72.4 ms
0 g
(  )107.5 72.4 ms
0 0.498 0.498 r
(if)s
0 g
( over == )s
0.498 0.125 0.498 r
(1)s
0 g
(:)s
0 0.498 0.498 r
(    58)59.5 62.4 ms
0 g
(    )107.5 62.4 ms
0 0.498 0.498 r
(    59)59.5 52.4 ms
0 g
(    )107.5 52.4 ms
0 0.498 0.498 r
(if)s
0 g
( xWon == )s
0.498 0.125 0.498 r
(1)s
0 g
(:)s
re sp
%%PageTrailer
%%Page: 2 2
%%BeginPageSetup
sv
0 g
F0 sf
%%EndPageSetup
F1 sf
(CPTFINAL.py[+]                                                                Page 2)59.5 792.4 ms
F0 sf
0 0.498 0.498 r
(    60)59.5 772.4 ms
0 g
(      text = )107.5 772.4 ms
0.498 0.125 0.498 r
("X")s
0 0.498 0.498 r
(    61)59.5 762.4 ms
0 g
(    )107.5 762.4 ms
0 0.498 0.498 r
(else)s
0 g
(:)s
0 0.498 0.498 r
(    62)59.5 752.4 ms
0 g
(      text =)107.5 752.4 ms
0.498 0.125 0.498 r
("O")s
0 0.498 0.498 r
(    63)59.5 742.4 ms
0 g
(      )107.5 742.4 ms
0 0.498 0.498 r
(    64)59.5 732.4 ms
0 g
(    endScreen = tk.Tk\(\))107.5 732.4 ms
0 0.498 0.498 r
(    65)59.5 722.4 ms
0 g
(    )107.5 722.4 ms
0 0.498 0.498 r
(    66)59.5 712.4 ms
0 g
(    endLable = tk.Label\(endScreen, text = f)107.5 712.4 ms
0.498 0.125 0.498 r
("GAME OVER, {text} WON")s
0 g
(\))s
0 0.498 0.498 r
(    67)59.5 702.4 ms
0 g
(    endLable.pack\(\))107.5 702.4 ms
0 0.498 0.498 r
(    68)59.5 692.4 ms
(    69)59.5 682.4 ms
(    70)59.5 672.4 ms
(def)107.5 672.4 ms
0 g
( )s
F1 sf
0.498 0.498 0 r
(btnPressed)s
F0 sf
0 g
(\(num\):)s
0 0.498 0.498 r
(    71)59.5 662.4 ms
0 g
(  turn = )107.5 662.4 ms
0.498 0.125 0.498 r
("")s
0 0.498 0.498 r
(    72)59.5 652.4 ms
(    73)59.5 642.4 ms
0 g
(  )107.5 642.4 ms
0 0.498 0.498 r
(global)s
0 g
( turnNum)s
0 0.498 0.498 r
(    74)59.5 632.4 ms
(    75)59.5 622.4 ms
0 g
(  )107.5 622.4 ms
0 0.498 0.498 r
(if)s
0 g
( turnNum % )s
0.498 0.125 0.498 r
(2)s
0 g
( == )s
0.498 0.125 0.498 r
(0)s
0 g
(:)s
0 0.498 0.498 r
(    76)59.5 612.4 ms
0 g
(    turn = )107.5 612.4 ms
0.498 0.125 0.498 r
("x")s
0 0.498 0.498 r
(    77)59.5 602.4 ms
0 g
(  )107.5 602.4 ms
0 0.498 0.498 r
(else)s
0 g
(:)s
0 0.498 0.498 r
(    78)59.5 592.4 ms
0 g
(    turn = )107.5 592.4 ms
0.498 0.125 0.498 r
("o")s
0 0.498 0.498 r
(    79)59.5 582.4 ms
(    80)59.5 572.4 ms
0 g
(  turnNum += )107.5 572.4 ms
0.498 0.125 0.498 r
(1)s
0 0.498 0.498 r
(    81)59.5 562.4 ms
(    82)59.5 552.4 ms
0 g
(  )107.5 552.4 ms
0 0.498 0.498 r
(if)s
0 g
( Buttons[num].cget\()s
0.498 0.125 0.498 r
("text")s
0 g
(\) != )s
0.498 0.125 0.498 r
("x")s
0 g
( )s
0 0.498 0.498 r
(and)s
0 g
( Buttons[num].cget\()s
0.498 0.125 0.498 r
("text")s
0 g
(\) != )s
0.498 0.125 0.498 r
("o")s
0 g
( :)s
0 0.498 0.498 r
(    83)59.5 542.4 ms
0 g
(    Buttons[num].config\(text = turn\))107.5 542.4 ms
0 0.498 0.498 r
(    84)59.5 532.4 ms
0 g
(  isGameOver\(\))107.5 532.4 ms
0 0.498 0.498 r
(    85)59.5 522.4 ms
0 g
(    )107.5 522.4 ms
0 0.498 0.498 r
(    86)59.5 512.4 ms
0 g
(    )107.5 512.4 ms
0 0.498 0.498 r
(    87)59.5 502.4 ms
0 g
(master = tk.Tk\(\))107.5 502.4 ms
0 0.498 0.498 r
(    88)59.5 492.4 ms
(    89)59.5 482.4 ms
0 g
(Buttons = [)107.5 482.4 ms
F1 sf
0.498 0.498 0 r
(None)s
F0 sf
0 g
(] * )s
0.498 0.125 0.498 r
(9)s
0 0.498 0.498 r
(    90)59.5 472.4 ms
(    91)59.5 462.4 ms
(for)107.5 462.4 ms
0 g
( i )s
0 0.498 0.498 r
(in)s
0 g
( )s
F1 sf
0.498 0.498 0 r
(range)s
F0 sf
0 g
(\()s
0.498 0.125 0.498 r
(9)s
0 g
(\):)s
0 0.498 0.498 r
(    92)59.5 452.4 ms
0 g
(  Buttons[i] = tk.Button\(master, text = )107.5 452.4 ms
0.498 0.125 0.498 r
("")s
0 g
(, command = )s
0 0.498 0.498 r
(lambda)s
0 g
( c=i: btnPressed)s
(\(c\)\))107.5 442.4 ms
0 0.498 0.498 r
(    93)59.5 432.4 ms
0 g
(  )107.5 432.4 ms
0 0.498 0.498 r
(    94)59.5 422.4 ms
0 g
(buttQuit = tk.Button\(master, text=)107.5 422.4 ms
0.498 0.125 0.498 r
("Die")s
0 g
(, command=master.destroy\))s
0 0.498 0.498 r
(    95)59.5 412.4 ms
0 g
(  )107.5 412.4 ms
0 0.498 0.498 r
(    96)59.5 402.4 ms
0 g
(Buttons[)107.5 402.4 ms
0.498 0.125 0.498 r
(0)s
0 g
(].grid\(row = )s
0.498 0.125 0.498 r
(0)s
0 g
(, column = )s
0.498 0.125 0.498 r
(0)s
0 g
(\))s
0 0.498 0.498 r
(    97)59.5 392.4 ms
0 g
(Buttons[)107.5 392.4 ms
0.498 0.125 0.498 r
(1)s
0 g
(].grid\(row = )s
0.498 0.125 0.498 r
(0)s
0 g
(, column = )s
0.498 0.125 0.498 r
(1)s
0 g
(\))s
0 0.498 0.498 r
(    98)59.5 382.4 ms
0 g
(Buttons[)107.5 382.4 ms
0.498 0.125 0.498 r
(2)s
0 g
(].grid\(row = )s
0.498 0.125 0.498 r
(0)s
0 g
(, column = )s
0.498 0.125 0.498 r
(2)s
0 g
(\))s
0 0.498 0.498 r
(    99)59.5 372.4 ms
(   100)59.5 362.4 ms
0 g
(Buttons[)107.5 362.4 ms
0.498 0.125 0.498 r
(3)s
0 g
(].grid\(row = )s
0.498 0.125 0.498 r
(1)s
0 g
(, column = )s
0.498 0.125 0.498 r
(0)s
0 g
(\))s
0 0.498 0.498 r
(   101)59.5 352.4 ms
0 g
(Buttons[)107.5 352.4 ms
0.498 0.125 0.498 r
(4)s
0 g
(].grid\(row = )s
0.498 0.125 0.498 r
(1)s
0 g
(, column = )s
0.498 0.125 0.498 r
(1)s
0 g
(\))s
0 0.498 0.498 r
(   102)59.5 342.4 ms
0 g
(Buttons[)107.5 342.4 ms
0.498 0.125 0.498 r
(5)s
0 g
(].grid\(row = )s
0.498 0.125 0.498 r
(1)s
0 g
(, column = )s
0.498 0.125 0.498 r
(2)s
0 g
(\))s
0 0.498 0.498 r
(   103)59.5 332.4 ms
(   104)59.5 322.4 ms
0 g
(Buttons[)107.5 322.4 ms
0.498 0.125 0.498 r
(6)s
0 g
(].grid\(row = )s
0.498 0.125 0.498 r
(2)s
0 g
(, column = )s
0.498 0.125 0.498 r
(0)s
0 g
(\))s
0 0.498 0.498 r
(   105)59.5 312.4 ms
0 g
(Buttons[)107.5 312.4 ms
0.498 0.125 0.498 r
(7)s
0 g
(].grid\(row = )s
0.498 0.125 0.498 r
(2)s
0 g
(, column = )s
0.498 0.125 0.498 r
(1)s
0 g
(\))s
0 0.498 0.498 r
(   106)59.5 302.4 ms
0 g
(Buttons[)107.5 302.4 ms
0.498 0.125 0.498 r
(8)s
0 g
(].grid\(row = )s
0.498 0.125 0.498 r
(2)s
0 g
(, column = )s
0.498 0.125 0.498 r
(2)s
0 g
(\))s
0 0.498 0.498 r
(   107)59.5 292.4 ms
(   108)59.5 282.4 ms
0 g
(buttQuit.grid\(row = )107.5 282.4 ms
0.498 0.125 0.498 r
(3)s
0 g
(, column = )s
0.498 0.125 0.498 r
(1)s
0 g
(\))s
re sp
%%PageTrailer
%%Trailer
%%Pages: 2
%%EOF
